{
    "success": true,
    "message": "Save completed successfully.",
    "data": {
        "absences": [],
        "leaveRequests": [],
        "contracts": [
            {
                "id": 17921,
                "contract_type": "Default",
                "date_from": "",
                "date_to": "",
                "first_contract": true
            }
        ],
        "documents": [],
        "equipments": [],
        "advances": [],
        "onHands": [],
        "otherActivities": [],
        "id": 17173,
        "prog": 1,
        "additional_code": null,
        "name": "mohamed",
        "surname": "m",
        "full_name": "mohamed m",
        "address": null,
        "address_2": null,
        "city": null,
        "state": null,
        "country": null,
        "country_code": null,
        "postal_code": null,
        "tel_1": "+2126000",
        "privacy_tel_1": "Public",
        "tel_2": null,
        "privacy_tel_2": "Private",
        "tel_3": null,
        "privacy_tel_3": "Private",
        "email": null,
        "additional_email": null,
        "gender": null,
        "date_of_birth": null,
        "country_of_birth": null,
        "marital_status": null,
        "no_of_children": null,
        "citizenship": null,
        "tax_code": null,
        "comments": null,
        "updated_at": 1713886284,
        "position": null,
        "job_title": "Driver",
        "customer_visible_in_driver_area": true,
        "photo_path": null,
        "languages": null,
        "operator_id": 0,
        "uniform_delivery": null,
        "blood_type": null,
        "licence_category": null,
        "social_security": null,
        "team_id": 6425,
        "label": "transparent",
        "telegram_chat_id": null,
        "telegram_notifications": false,
        "telegram_subscription_code": null,
        "subscription": "Active",
        "subscription_at": "2024-04-22 17:14:07",
        "team_label": "Default"
    },
    "driverUserInformation": []
}