{
    "success": true,
    "data": {
        "tripAnnotations": [],
        "statusLogs": [
            {
                "id": 2224642,
                "status_trip": "Booking confirmed",
                "event_date": "2024-05-14 16:55:34",
                "by_user_name": "xxx xxx",
                "by_user_id": 13204
            },
            {
                "id": 2224641,
                "status_trip": "Quotation open",
                "event_date": "2024-05-14 16:55:12",
                "by_user_name": "xxx xxx",
                "by_user_id": 13204
            }
        ],
        "id": 2150722,
        "operator_id": 0,
        "serie_name": "Default",
        "serie_period": "Undefined",
        "number": "1",
        "prefix_part": null,
        "suffix_part": null,
        "number_part": 1,
        "option_expiring_date": "",
        "passengers": 2,
        "luggages_from_hold": null,
        "luggages_by_hand": null,
        "status_trip": "Booking confirmed",
        "status_at": "2024-05-14 16:55:34",
        "created_at": "2024-05-14 16:55:12",
        "updated_at": 1715702753,
        "created_by_name": "xxx xxx",
        "created_by_user_id": 13204,
        "team_id": 6425,
        "passenger_or_group_leader": null,
        "passenger_or_group_leader_mobile": null,
        "reference": null,
        "additional_details": null,
        "additional_details_2": null,
        "additional_details_3": null,
        "macro_type": "private_transfer",
        "travel_type": "Type 1",
        "label": "transparent",
        "vehicles_quantity": 1,
        "seats": 22,
        "vehicle_type": "Minibus",
        "customer_id": 216674,
        "manager_id": 0,
        "contact_person_id": null,
        "negotiation_supply": false,
        "exempted_561": false,
        "completed": false,
        "repeated": false,
        "title": "Go To The Port",
        "customer_document": "None",
        "customer_document_via": null,
        "customer_document_datetime": null,
        "last_esign_notification": null,
        "last_esign_notification_datetime": null,
        "locked": false,
        "locked_at": null,
        "locked_by_user_id": null,
        "issue_on_the_road": false,
        "sengerio_number": "DA37",
        "market_segment": null,
        "segment_a": null,
        "segment_b": null,
        "segment_c": null,
        "segment_d": null,
        "segment_e": null,
        "origin_area": null,
        "destination_area": null,
        "transfer_data": null,
        "transfer_data_timestamp": null,
        "phase": "Booking",
        "pricing": {
            "id": 2166315,
            "total_vehicle_price": "100.00",
            "total_expenses": "0.00",
            "gross_total_expenses": null,
            "total_extras": "0.00",
            "gross_total_extras": null,
            "total_vat": "0.00",
            "gross_total_price": "100.00",
            "net_total_price": "100.00",
            "locked_total": false,
            "trade_currency": "EUR",
            "payments": [],
            "priceRows": [
                {
                    "id": 2406515,
                    "position": 1,
                    "type": "Transport",
                    "duty_code": "all",
                    "description": "Vehicle",
                    "quantity": "1.00",
                    "unit_price": "100.00",
                    "discount_percentage": "0.00",
                    "unit_discount": "0.00",
                    "unit_discounted_price": "100.00",
                    "total_discount": "0.00",
                    "total_price": "100.00",
                    "vat_code": null,
                    "vat_description": null,
                    "vat_percentage": null,
                    "vat_amount": "0.00",
                    "net_amount": "100.00",
                    "gross_total_price": "100.00",
                    "trade_currency": "EUR",
                    "pro_quota_distance": null,
                    "uuid": "dfea6c52-056c-4739-a827-302b83a5c5bb",
                    "territorialities": []
                }
            ],
            "vatCodeAmounts": [
                {
                    "id": 833069,
                    "net_amount": "100.00",
                    "vat_code": null,
                    "vat_description": null,
                    "vat_percentage": null,
                    "vat_amount": "0.00"
                }
            ]
        },
        "costing": {
            "id": 2144306,
            "total_vehicle_cost": "0.00",
            "total_expenses": "0.00",
            "gross_total_expenses": "0.00",
            "total_driver_refund": "0.00",
            "total_extras": "0.00",
            "gross_total_extras": null,
            "total_vat": "0.00",
            "gross_total_cost": "0.00",
            "net_total_cost": "0.00",
            "driver_hourly_cost": null,
            "unit_cost_per_km": null,
            "locked_total": false,
            "trade_currency": "EUR",
            "reported_expenses": null,
            "costRows": [
                {
                    "id": 2220924,
                    "position": 1,
                    "type": "Transport",
                    "duty_code": "all",
                    "description": "Vehicle",
                    "quantity": "1.00",
                    "unit_cost": "0.00",
                    "discount_percentage": "0.00",
                    "unit_discount": "0.00",
                    "unit_discounted_cost": "0.00",
                    "total_discount": "0.00",
                    "total_cost": "0.00",
                    "vat_code": null,
                    "vat_description": null,
                    "vat_percentage": null,
                    "vat_amount": "0.00",
                    "net_amount": "0.00",
                    "gross_total_cost": "0.00",
                    "uuid": "ad20588c-0dd2-482c-89fc-0234823df3c5",
                    "trade_currency": "EUR",
                    "expenseDetail": {
                        "id": 2124065,
                        "supplier": null,
                        "tag": null,
                        "driver_refund": null,
                        "paid_by": null,
                        "paid_by_driver_id": 0,
                        "payment_date": null,
                        "payment_method": null,
                        "note": null,
                        "reported": false,
                        "created_at": "2024-05-14 16:55:12",
                        "created_by_user": "xxx xxx",
                        "created_by_id": 13204,
                        "last_updated_at": null,
                        "last_updated_by_user": null,
                        "last_updated_by_id": 0,
                        "file_path": null
                    }
                }
            ],
            "costingVatCodeAmounts": [
                {
                    "id": 677796,
                    "net_amount": "0.00",
                    "vat_code": null,
                    "vat_description": null,
                    "vat_percentage": null,
                    "vat_amount": "0.00"
                }
            ]
        },
        "route": {
            "id": 2275284,
            "total_distance": 100,
            "total_distance_for_vehicles_quantity": 100,
            "first_route_point_name": "Casablanca",
            "last_route_point_name": "Med 5 Aeroport",
            "actual_distance": 0,
            "change_unit": 0,
            "change_cost": "0.00",
            "sync_customer_route": true,
            "route_overview": "Casablanca → Med 5 Aeroport",
            "routePoints": [
                {
                    "id": 9016217,
                    "position": 1,
                    "instruction": "no",
                    "transit_date": "2024-05-15 00:05:00",
                    "type": "pickup_date",
                    "free_text": null,
                    "business_name_or_poi": null,
                    "address": null,
                    "tag": "City and address",
                    "postal_code": null,
                    "state": null,
                    "country": null,
                    "tel": null,
                    "link": null,
                    "city": "Casablanca",
                    "section_no": 1,
                    "extremity": "first",
                    "coordinates": null,
                    "code": null,
                    "place_id": 196148,
                    "time_undefined": false,
                    "flight_ship_train_number_or_name": null,
                    "flight_ship_train_datetime": "",
                    "uuid": "aa768664-a66b-4719-b393-60d15fed253e"
                },
                {
                    "id": 9016218,
                    "position": 2,
                    "instruction": "no",
                    "transit_date": "2024-05-15 00:35:00",
                    "type": null,
                    "free_text": null,
                    "business_name_or_poi": null,
                    "address": null,
                    "tag": "City and address",
                    "postal_code": null,
                    "state": null,
                    "country": null,
                    "tel": null,
                    "link": null,
                    "city": "Med 5 Aeroport",
                    "section_no": 1,
                    "extremity": "last",
                    "coordinates": null,
                    "code": null,
                    "place_id": 196149,
                    "time_undefined": false,
                    "flight_ship_train_number_or_name": null,
                    "flight_ship_train_datetime": "",
                    "uuid": "e6e30447-08a7-4b40-a04c-b25af6f9e0f6"
                }
            ]
        },
        "profit": {
            "id": 2111462,
            "price": "100.00",
            "estimated_profit": "100.00",
            "total_cost_change": "0.00",
            "actual_cost": "0.00",
            "profit": "100.00"
        },
        "passengerList": {
            "id": 2248455,
            "list": "",
            "passengers": []
        },
        "working": {
            "id": 2251133,
            "total_vehicle_working_duration": 30,
            "vehicle_duties_quantity": 1,
            "driver_duties_quantity": 1,
            "assistant_duties_quantity": 0,
            "last_operative_update": 1715702134,
            "vehicleDuties": [
                {
                    "id": 2310474,
                    "duty_code": "1.1",
                    "start_duty": "2024-05-15 00:05:00",
                    "finish_duty": "2024-05-15 00:35:00",
                    "start_location": "Casablanca",
                    "finish_location": "Med 5 Aeroport",
                    "route_overview": "Casablanca → Med 5 Aeroport",
                    "departures": [
                        {
                            "position": 1,
                            "type": "pickup_date",
                            "city": "Casablanca",
                            "instruction": "no"
                        }
                    ],
                    "arrivals": [
                        {
                            "position": 2,
                            "city": "Med 5 Aeroport",
                            "instruction": "no"
                        }
                    ],
                    "start_point_time_undefined": false,
                    "finish_point_time_undefined": false,
                    "section_no": 1,
                    "vehicle_ordinal": 1,
                    "distance_start": null,
                    "distance_finish": null,
                    "actual_distance": null,
                    "duty_distance": null,
                    "duration": 30,
                    "covered": false,
                    "vehicle_coverage": false,
                    "driver_coverage": false,
                    "assigned_vehicle_id": null,
                    "assistant_coverage": null,
                    "supplier_coverage": false,
                    "assigned_business_partner_id": null,
                    "drivers_list": "",
                    "assistants_list": "",
                    "locked_coverage": false,
                    "shared_to_supplier": false,
                    "shared_to_supplier_status_at": null,
                    "min_seats": null,
                    "humanResourceDuties": [
                        {
                            "id": 2493954,
                            "duty_code": "1.1 A",
                            "additional_duty_code": null,
                            "resource_type": "Driver",
                            "start_duty": "2024-05-15 00:05:00",
                            "finish_duty": "2024-05-15 00:35:00",
                            "start_location": "Casablanca",
                            "finish_location": "Med 5 Aeroport",
                            "start_point_time_undefined": false,
                            "finish_point_time_undefined": false,
                            "duration_type": "Entire",
                            "driving_time_hours": null,
                            "driving_time_minutes": null,
                            "presence_start": "",
                            "presence_finish": "",
                            "memorandum": null,
                            "change_unit": 0,
                            "change_cost": "0.00",
                            "duration": 30,
                            "presence_start_latitude": null,
                            "presence_start_longitude": null,
                            "presence_start_accuracy": 0,
                            "presence_finish_latitude": null,
                            "presence_finish_longitude": null,
                            "presence_finish_accuracy": 0,
                            "assigned_human_resource_id": null,
                            "shared_to_human_resource": false,
                            "shared_to_human_resource_status_at": "2024-05-14 16:55:34",
                            "assigned_business_partner_id": null,
                            "start_route_point_uuid": null,
                            "finish_route_point_uuid": null,
                            "locked_coverage": false,
                            "duty_cost": null,
                            "travel_allowance": null
                        }
                    ],
                    "vehicle_duties_quantity": 1,
                    "driver_duties_quantity": 1,
                    "assistant_duties_quantity": 0
                }
            ]
        },
        "invoicing": {
            "id": 1771474,
            "customer_invoicing": "Invoiced",
            "customer_invoicing_with_proforma": true,
            "first_expiring_customer_invoicing": "2024-05-14",
            "payment_customer_invoiced": "Not paid",
            "supplier_invoicing": "Not invoiced",
            "first_expiring_supplier_invoicing": null,
            "payment_supplier_invoiced": null,
            "subcontract_customer_invoicing": "Not invoiced",
            "subcontract_customer_invoicing_with_proforma": false,
            "first_expiring_subcontract_customer_invoicing": null,
            "payment_subcontract_customer_invoiced": null,
            "invoiceReferences": [
                {
                    "id": 1039228,
                    "invoice_type": "Customer",
                    "object_type": "Invoice",
                    "object_id": 357271,
                    "number": "PRO4",
                    "due_date": "2024-05-14",
                    "payment_state": "Not paid",
                    "net_total_invoiced": "100.00"
                }
            ],
            "creditNoteReferences": []
        },
        "team_label": "Default",
        "tripTrackingAndNotifications": []
    },
    "customerInformation": {
        "id": 216674,
        "name": "xxxxxx",
        "code": "2",
        "contact_person": {
            "name": null,
            "email": null
        }
    },
    "managerInformation": {
        "id": 0,
        "name": "xxxxxx",
        "code": "@0"
    },
    "externalVehicles": [],
    "externalHumanResources": [],
    "customerPassengers": [],
    "assignedHumanResources": [],
    "assignedVehicles": [],
    "assignedExternalSupplier": [],
    "sharedAnnotations": []
}